…
Fri Jan 10 13:57:52 2020  Last timestamp: 
[1] "2017-09-12 17:30:53 UTC"
Fri Jan 10 13:58:19 2020  Assigning sample numbers and computing elapsed time... 
Fri Jan 10 13:58:58 2020  Removing ambient and very long samples... 
Fri Jan 10 13:59:06 2020  rawdata_samples rows = 84 cols = 9 
Fri Jan 10 13:59:08 2020  Visualizing... 
NULL
Fri Jan 10 14:11:06 2020  Removing ambient and very long samples... 
Fri Jan 10 14:11:10 2020  rawdata_samples rows = 2835802 cols = 9 
Fri Jan 10 14:11:10 2020  Visualizing... 
Fri Jan 10 14:11:38 2020  Saving outputs//3-summarize/raw_co2_by_valve.png 
Fri Jan 10 14:11:53 2020  Saving outputs//3-summarize/raw_ch4_by_valve.png 
Fri Jan 10 14:11:57 2020  ------------------- 
Fri Jan 10 14:11:58 2020  Reading valve and core mapping data... 
# A tibble: 657 x 17
   Site  Core_ID Treatment SampleID Total_core_mass Additional_Wt_t
   <chr> <chr>   <chr>     <chr>               <dbl>            <dbl>
 1 DWP   6       sat_I     D6                   570.               10
 2 DWP   7       sat_I     D7                   636.               10
 3 DWP   8       sat_I     D8                   546.               10
 4 DWP   9       sat_I     D9                   424.               10
 5 DWP   10      sat_I     D10                  541                10
 6 DWP   21      drought   D21                  540.               NA
 7 DWP   22      drought   D22                  527.               NA
 8 DWP   23      drought   D23                  589.               NA
 9 DWP   24      drought   D24                  398.               NA
10 DWP   25      drought   D25                  439.               NA
#  with 647 more rows, and 11 more variables: sequence_valve <dbl>,
#   Picarro_method <chr>, Start_Date_Time <chr>, Stop_Date_Time <chr>,
#   Time_Zone <chr>, Time_elapsed_h <dbl>, TREATMENT_PHASE <chr>, Notes <chr>,
#   Who <chr>, Ignore_Data <chr>, rownum <int>
…
